…
    ## # A tibble: 2 × 6
    ##   .metric .estimator   mean     n std_err .config             
    ##   <chr>   <chr>       <dbl> <int>   <dbl> <chr>               
    ## 1 rmse    standard   0.0707    10 0.00135 Preprocessor1_Model1
    ## 2 rsq     standard   0.831     10 0.00570 Preprocessor1_Model1

``` r
assess_res <- collect_predictions(rf_res)

assess_res
```

    ## # A tibble: 4,394 × 6
    ##    id      id2   .pred  .row Sale_Price .config             
    ##    <chr>   <chr> <dbl> <int>      <dbl> <chr>               
    ##  1 Repeat1 Fold1  5.07     3       5.06 Preprocessor1_Model1
    ##  2 Repeat1 Fold1  5.02     6       4.94 Preprocessor1_Model1
    ##  3 Repeat1 Fold1  5.10    10       5.09 Preprocessor1_Model1
    ##  4 Repeat1 Fold1  5.10    14       4.88 Preprocessor1_Model1
    ##  5 Repeat1 Fold1  5.17    16       5.04 Preprocessor1_Model1
    ##  6 Repeat1 Fold1  5.12    18       5.09 Preprocessor1_Model1
    ##  7 Repeat1 Fold1  4.97    28       5.08 Preprocessor1_Model1
    ##  8 Repeat1 Fold1  5.16    40       4.97 Preprocessor1_Model1
    ##  9 Repeat1 Fold1  5.06    46       5.11 Preprocessor1_Model1
    ## 10 Repeat1 Fold1  5.11    48       5.11 Preprocessor1_Model1
    ## # … with 4,384 more rows
…
