…
`flights_fit` contains a finalized recipe and fitted model objects. We
can extract the model and recipe objects using `extract_fit_parsnip()`
and `extract_recipe()` respectively. We use the `broom::tidy()` function
to get a tidy result from the extracted model.

``` r
flights_fit |> extract_fit_parsnip() |> broom::tidy()
```

    ## # A tibble: 157 × 5
    ##    term                         estimate std.error statistic  p.value
    ##    <chr>                           <dbl>     <dbl>     <dbl>    <dbl>
    ##  1 (Intercept)                   7.28    2.73           2.67 7.64e- 3
    ##  2 dep_time                     -0.00166 0.0000141   -118.   0       
    ##  3 air_time                     -0.0440  0.000563     -78.2  0       
    ##  4 distance                      0.00507 0.00150        3.38 7.32e- 4
    ##  5 date_USChristmasDay           1.33    0.177          7.49 6.93e-14
    ##  6 date_USColumbusDay            0.724   0.170          4.25 2.13e- 5
    ##  7 date_USCPulaskisBirthday      0.807   0.139          5.80 6.57e- 9
    ##  8 date_USDecorationMemorialDay  0.585   0.117          4.98 6.32e- 7
    ##  9 date_USElectionDay            0.948   0.190          4.98 6.25e- 7
    ## 10 date_USGoodFriday             1.25    0.167          7.45 9.40e-14
    ## # … with 147 more rows

## Predicting using trained workflow

Now we can use the trained workflow to predict with our test data.

``` r
predict(flights_fit, test_data)
```

    ## # A tibble: 81,455 × 1
    ##    .pred_class
    ##    <fct>      
    ##  1 on_time    
    ##  2 on_time    
    ##  3 on_time    
    ##  4 on_time    
    ##  5 on_time    
    ##  6 on_time    
    ##  7 on_time    
    ##  8 on_time    
    ##  9 on_time    
    ## 10 on_time    
    ## # … with 81,445 more rows

We can retrieve actual probabilities using `type = "prob"` or by using
augment() to save both probabilities and predicted class.

``` r
flights_aug <-
  augment(flights_fit, test_data)

#Data look like:
flights_aug |> select(arr_delay, time_hour, flight, .pred_class, .pred_on_time)
```

    ## # A tibble: 81,455 × 5
    ##    arr_delay time_hour           flight .pred_class .pred_on_time
    ##    <fct>     <dttm>               <int> <fct>               <dbl>
    ##  1 on_time   2013-01-01 05:00:00   1545 on_time             0.945
    ##  2 on_time   2013-01-01 05:00:00   1714 on_time             0.949
    ##  3 on_time   2013-01-01 06:00:00    507 on_time             0.964
    ##  4 on_time   2013-01-01 06:00:00   5708 on_time             0.961
    ##  5 on_time   2013-01-01 06:00:00     71 on_time             0.962
    ##  6 on_time   2013-01-01 06:00:00    194 on_time             0.975
    ##  7 on_time   2013-01-01 06:00:00   1124 on_time             0.963
    ##  8 on_time   2013-01-01 05:00:00   1806 on_time             0.981
    ##  9 on_time   2013-01-01 06:00:00   1187 on_time             0.935
    ## 10 on_time   2013-01-01 06:00:00   4650 on_time             0.931
    ## # … with 81,445 more rows
…
