…
## dplyr

<https://r4ds.had.co.nz/transform.html>

Example data set: `nycflights13::flights` contains all flights departing
NYC in 2013.

``` r
library(nycflights13)
library(tidyverse)
flights
```

    ## # A tibble: 336,776 × 19
    ##     year month   day dep_time sched_dep_time dep_delay arr_time sched_arr_time
    ##    <int> <int> <int>    <int>          <int>     <dbl>    <int>          <int>
    ##  1  2013     1     1      517            515         2      830            819
    ##  2  2013     1     1      533            529         4      850            830
    ##  3  2013     1     1      542            540         2      923            850
    ##  4  2013     1     1      544            545        -1     1004           1022
    ##  5  2013     1     1      554            600        -6      812            837
    ##  6  2013     1     1      554            558        -4      740            728
    ##  7  2013     1     1      555            600        -5      913            854
    ##  8  2013     1     1      557            600        -3      709            723
    ##  9  2013     1     1      557            600        -3      838            846
    ## 10  2013     1     1      558            600        -2      753            745
    ## # … with 336,766 more rows, and 11 more variables: arr_delay <dbl>,
    ## #   carrier <chr>, flight <int>, tailnum <chr>, origin <chr>, dest <chr>,
    ## #   air_time <dbl>, distance <dbl>, hour <dbl>, minute <dbl>, time_hour <dttm>
…
`filter(dataframe, ...filtering expressions...)`

-   Filters observations by their values
-   doesn’t alter original dataframe – must save result to new variable

Note: don’t use == for floating point calculations, use `near(a, b)`
instead

``` r
#selecting flights leaving in november or december
#note use of %in% 
filter(flights, month %in% c(11, 12))
```

    ## # A tibble: 55,403 × 19
    ##     year month   day dep_time sched_dep_time dep_delay arr_time sched_arr_time
    ##    <int> <int> <int>    <int>          <int>     <dbl>    <int>          <int>
    ##  1  2013    11     1        5           2359         6      352            345
    ##  2  2013    11     1       35           2250       105      123           2356
    ##  3  2013    11     1      455            500        -5      641            651
    ##  4  2013    11     1      539            545        -6      856            827
    ##  5  2013    11     1      542            545        -3      831            855
    ##  6  2013    11     1      549            600       -11      912            923
    ##  7  2013    11     1      550            600       -10      705            659
    ##  8  2013    11     1      554            600        -6      659            701
    ##  9  2013    11     1      554            600        -6      826            827
    ## 10  2013    11     1      554            600        -6      749            751
    ## # … with 55,393 more rows, and 11 more variables: arr_delay <dbl>,
    ## #   carrier <chr>, flight <int>, tailnum <chr>, origin <chr>, dest <chr>,
    ## #   air_time <dbl>, distance <dbl>, hour <dbl>, minute <dbl>, time_hour <dttm>

### 2. Arrange

`arrange(dataframe, ... column names ...)`

-   Reorders rows
-   when providing more than one column name, each additional column
    will be used to break ties in values of preceding columns
-   **desc(column_name)** reorders by given column in descending order

``` r
arrange(flights, desc(dep_delay))
```

    ## # A tibble: 336,776 × 19
    ##     year month   day dep_time sched_dep_time dep_delay arr_time sched_arr_time
    ##    <int> <int> <int>    <int>          <int>     <dbl>    <int>          <int>
    ##  1  2013     1     9      641            900      1301     1242           1530
    ##  2  2013     6    15     1432           1935      1137     1607           2120
    ##  3  2013     1    10     1121           1635      1126     1239           1810
    ##  4  2013     9    20     1139           1845      1014     1457           2210
    ##  5  2013     7    22      845           1600      1005     1044           1815
    ##  6  2013     4    10     1100           1900       960     1342           2211
    ##  7  2013     3    17     2321            810       911      135           1020
    ##  8  2013     6    27      959           1900       899     1236           2226
    ##  9  2013     7    22     2257            759       898      121           1026
    ## 10  2013    12     5      756           1700       896     1058           2020
    ## # … with 336,766 more rows, and 11 more variables: arr_delay <dbl>,
    ## #   carrier <chr>, flight <int>, tailnum <chr>, origin <chr>, dest <chr>,
    ## #   air_time <dbl>, distance <dbl>, hour <dbl>, minute <dbl>, time_hour <dttm>
…
``` r
select(flights, year:day)
```

    ## # A tibble: 336,776 × 3
    ##     year month   day
    ##    <int> <int> <int>
    ##  1  2013     1     1
    ##  2  2013     1     1
    ##  3  2013     1     1
    ##  4  2013     1     1
    ##  5  2013     1     1
    ##  6  2013     1     1
    ##  7  2013     1     1
    ##  8  2013     1     1
    ##  9  2013     1     1
    ## 10  2013     1     1
    ## # … with 336,766 more rows

``` r
rename(flights, tail_num=tailnum)
```

    ## # A tibble: 336,776 × 19
    ##     year month   day dep_time sched_dep_time dep_delay arr_time sched_arr_time
    ##    <int> <int> <int>    <int>          <int>     <dbl>    <int>          <int>
    ##  1  2013     1     1      517            515         2      830            819
    ##  2  2013     1     1      533            529         4      850            830
    ##  3  2013     1     1      542            540         2      923            850
    ##  4  2013     1     1      544            545        -1     1004           1022
    ##  5  2013     1     1      554            600        -6      812            837
    ##  6  2013     1     1      554            558        -4      740            728
    ##  7  2013     1     1      555            600        -5      913            854
    ##  8  2013     1     1      557            600        -3      709            723
    ##  9  2013     1     1      557            600        -3      838            846
    ## 10  2013     1     1      558            600        -2      753            745
    ## # … with 336,766 more rows, and 11 more variables: arr_delay <dbl>,
    ## #   carrier <chr>, flight <int>, tail_num <chr>, origin <chr>, dest <chr>,
    ## #   air_time <dbl>, distance <dbl>, hour <dbl>, minute <dbl>, time_hour <dttm>

``` r
select(flights, time_hour, air_time, everything())
```

    ## # A tibble: 336,776 × 19
    ##    time_hour           air_time  year month   day dep_time sched_dep_time
    ##    <dttm>                 <dbl> <int> <int> <int>    <int>          <int>
    ##  1 2013-01-01 05:00:00      227  2013     1     1      517            515
    ##  2 2013-01-01 05:00:00      227  2013     1     1      533            529
    ##  3 2013-01-01 05:00:00      160  2013     1     1      542            540
    ##  4 2013-01-01 05:00:00      183  2013     1     1      544            545
    ##  5 2013-01-01 06:00:00      116  2013     1     1      554            600
    ##  6 2013-01-01 05:00:00      150  2013     1     1      554            558
    ##  7 2013-01-01 06:00:00      158  2013     1     1      555            600
    ##  8 2013-01-01 06:00:00       53  2013     1     1      557            600
    ##  9 2013-01-01 06:00:00      140  2013     1     1      557            600
    ## 10 2013-01-01 06:00:00      138  2013     1     1      558            600
    ## # … with 336,766 more rows, and 12 more variables: dep_delay <dbl>,
    ## #   arr_time <int>, sched_arr_time <int>, arr_delay <dbl>, carrier <chr>,
    ## #   flight <int>, tailnum <chr>, origin <chr>, dest <chr>, distance <dbl>,
    ## #   hour <dbl>, minute <dbl>
### 4. Mutate

`mutate(dataframe, new_column = . , ...)`

-   Adds new columns that are functions of existing columns
-   adds columns at end of dataset
-   use **transmute()** if only want to keep new variables

``` r
#want to see new columns
flights_sml <- select(flights, year:day, ends_with("delay"), distance, air_time)
mutate(flights_sml, gain=dep_delay - arr_delay, speed = distance/air_time * 60)
```

    ## # A tibble: 336,776 × 9
    ##     year month   day dep_delay arr_delay distance air_time  gain speed
    ##    <int> <int> <int>     <dbl>     <dbl>    <dbl>    <dbl> <dbl> <dbl>
    ##  1  2013     1     1         2        11     1400      227    -9  370.
    ##  2  2013     1     1         4        20     1416      227   -16  374.
    ##  3  2013     1     1         2        33     1089      160   -31  408.
    ##  4  2013     1     1        -1       -18     1576      183    17  517.
    ##  5  2013     1     1        -6       -25      762      116    19  394.
    ##  6  2013     1     1        -4        12      719      150   -16  288.
    ##  7  2013     1     1        -5        19     1065      158   -24  404.
    ##  8  2013     1     1        -3       -14      229       53    11  259.
    ##  9  2013     1     1        -3        -8      944      140     5  405.
    ## 10  2013     1     1        -2         8      733      138   -10  319.
    ## # … with 336,766 more rows

``` r
transmute(flights_sml, hours = air_time/60)
```

    ## # A tibble: 336,776 × 1
    ##    hours
    ##    <dbl>
    ##  1 3.78 
    ##  2 3.78 
    ##  3 2.67 
    ##  4 3.05 
    ##  5 1.93 
    ##  6 2.5  
    ##  7 2.63 
    ##  8 0.883
    ##  9 2.33 
    ## 10 2.3  
    ## # … with 336,766 more rows
…
-   collapses a data frame to a single row
-   mostly useful when paired with group_by()
-   can use mean(), median(), sd(), etc.

``` r
#Note use of na.rm = TRUE --- removes all null values, as otherwise any null would collapse entire output to null
flights %>% 
  group_by(year, month, day) %>%
    summarize(mean=mean(dep_delay, na.rm = TRUE))
```

    ## `summarise()` has grouped output by 'year', 'month'. You can override using the `.groups` argument.

    ## # A tibble: 365 × 4
    ## # Groups:   year, month [12]
    ##     year month   day  mean
    ##    <int> <int> <int> <dbl>
    ##  1  2013     1     1 11.5 
    ##  2  2013     1     2 13.9 
    ##  3  2013     1     3 11.0 
    ##  4  2013     1     4  8.95
    ##  5  2013     1     5  5.73
    ##  6  2013     1     6  7.15
    ##  7  2013     1     7  5.42
    ##  8  2013     1     8  2.55
    ##  9  2013     1     9  2.28
    ## 10  2013     1    10  2.84
    ## # … with 355 more rows
…
